{"content":[{"id":2662,"idTipoTelefone":1,"idPessoa":1323,"ddd":"11","telefone":"35323666","ramal":"11","status":1},{"id":2664,"idTipoTelefone":1,"idPessoa":1323,"ddd":"11","telefone":"991882511","ramal":"10","status":1},{"id":2887,"idTipoTelefone":1,"idPessoa":1323,"ddd":"11","telefone":"991882511","ramal":"10","status":1},{"id":2888,"idTipoTelefone":1,"idPessoa":1323,"ddd":"11","telefone":"992124578","ramal":"10","status":1},{"id":2889,"idTipoTelefone":1,"idPessoa":1323,"ddd":"11","telefone":"965654878","ramal":"10","status":1}],"first":true,"firstPage":true,"hasContent":true,"hasNextPage":true,"hasPreviousPage":false,"last":false,"nextPage":1,"number":0,"numberOfElements":5,"previousPage":null,"size":5,"totalElements":454,"totalPages":91}